<svg width="340" height="422" viewBox="0 0 340 422" fill="none" xmlns="http://www.w3.org/2000/svg">
<mask id="mask0" mask-type="alpha" maskUnits="userSpaceOnUse" x="0" y="0" width="340" height="422">
<rect width="340" height="422" rx="20" fill="white"/>
</mask>
<g mask="url(#mask0)">
<path fill-rule="evenodd" clip-rule="evenodd" d="M320.83 435.77C318.215 433.828 304.651 436.544 299.976 427.191C295.301 417.839 301.357 413.789 300.121 409.008C298.886 404.228 286.456 399.537 284.479 391.888C282.503 384.239 284.993 381.045 283.634 375.786C282.276 370.527 270.775 362.535 275.206 355.014C279.637 347.493 288.623 352.973 291.498 355.901C294.375 358.829 296.12 364.907 299.729 367.034C303.34 369.161 307.743 366.747 312.337 371.424C316.931 376.1 318.957 383.227 324.07 386.24C329.183 389.254 336.228 387.994 343.18 395.07C350.129 402.146 347.393 419.777 345.485 421.759C343.849 423.46 346.486 436.151 342.177 441.037L333.154 443.37C328.454 442.843 325.938 439.567 320.83 435.77Z" fill="#8CB2EF"/>
<path d="M289.023 367.252C289.023 367.252 319.876 401.934 339.401 441.755" stroke="white" stroke-width="0.5669" stroke-miterlimit="22.9256"/>
<path d="M310.396 394.584C310.396 394.584 300.24 389.912 292.36 390.9" stroke="white" stroke-width="0.5669" stroke-miterlimit="22.9256"/>
<path d="M321.638 410.735C321.638 410.735 320.907 402.713 322.025 398.467" stroke="white" stroke-width="0.5669" stroke-miterlimit="22.9256"/>
<path fill-rule="evenodd" clip-rule="evenodd" d="M325.903 418.985C297.066 395.395 302.197 328.541 306.948 309.967C311.699 291.392 330.964 313.308 344.296 331.949C352.263 343.085 376.037 342.646 383.388 372.479C390.739 402.312 378.308 429.564 370.822 428.051C363.335 426.54 356.969 444.399 325.903 418.985Z" fill="#D7DBF2"/>
<path d="M351.819 425.071C353.904 410.839 355.008 379.088 327.9 334.093" stroke="white" stroke-width="0.5669" stroke-miterlimit="22.9256"/>
<path d="M342.329 362.665C342.329 362.665 318.13 355.494 310.757 347.728" stroke="white" stroke-width="0.5669" stroke-miterlimit="22.9256"/>
<path fill-rule="evenodd" clip-rule="evenodd" d="M2.61467 43.3618C6.27322 23.8204 10.8436 14.8824 0.152371 14.7349C-10.539 14.5866 -13.5266 19.1611 -6.22965 39.8499C-3.44687 47.7426 -1.11461 51.688 -1.11461 51.688L2.61467 43.3618Z" fill="#8CB2EF"/>
<path fill-rule="evenodd" clip-rule="evenodd" d="M2.53283 43.482C6.72325 37.9903 27.5484 19.8735 39.7339 31.4182C51.9186 42.9635 34.0403 51.9648 26.5938 52.1394C19.1472 52.3132 2.41774 52.301 -1.70815 53.1221C1.30268 46.2917 2.53283 43.482 2.53283 43.482Z" fill="#8CB2EF"/>
<path d="M12.2764 28.3027C12.2764 28.3027 -3.00712 47.9125 -14.3026 88.3511" stroke="#8CB2EF" stroke-width="0.5669" stroke-miterlimit="22.9256"/>
<path fill-rule="evenodd" clip-rule="evenodd" d="M-12.4628 82.4871C-1.82645 76.5208 7.27748 71.5258 13.9807 68.1508C20.6862 64.7744 28.2524 65.9897 31.9441 76.3989C39.3439 97.2517 -4.71847 88.7524 -14.2911 88.3505C-16.3351 88.2656 -14.2481 83.4881 -12.4628 82.4871Z" fill="#8CB2EF"/>
<path fill-rule="evenodd" clip-rule="evenodd" d="M11.0242 30.2583C13.546 15.773 15.9393 5.49848 25.3199 8.53336C34.7 11.5689 17.4762 29.518 11.0242 30.2583Z" fill="#8CB2EF"/>
<path fill-rule="evenodd" clip-rule="evenodd" d="M-31.9535 203.205C25.0451 185.642 61.7497 86.479 66.9333 56.2275C72.1175 25.9759 29.6501 45.4353 -2.00633 63.9789C-20.9206 75.0555 -55.3802 58.8943 -85.6021 97.7023C-115.825 136.51 -103.522 187.135 -103.522 187.135L-31.9535 203.205Z" fill="#D7DBF2"/>
<path d="M-73.8023 195.183C-67.5558 173.018 -48.4398 125.889 20.5576 77.8149" stroke="white" stroke-width="0.5669" stroke-miterlimit="22.9256"/>
<path fill-rule="evenodd" clip-rule="evenodd" d="M63.4797 328.385C65.6045 300.904 70.5696 287.9 55.8082 289.292C41.0474 290.683 37.612 297.435 50.7619 324.864C55.7781 335.329 59.5821 340.419 59.5821 340.419L63.4797 328.385Z" fill="white" stroke="#8CB2EF" stroke-width="0.5669" stroke-miterlimit="22.9256"/>
<path fill-rule="evenodd" clip-rule="evenodd" d="M63.3851 328.565C68.342 320.369 94.3448 292.288 112.867 306.385C131.39 320.481 108.089 335.557 97.8489 336.908C87.6092 338.26 64.5448 340.738 58.9788 342.486C62.109 332.62 63.3851 328.565 63.3851 328.565Z" fill="white" stroke="#8CB2EF" stroke-width="0.5669" stroke-miterlimit="22.9256"/>
<path d="M63.5322 327.721C63.5322 327.721 40.0176 396.838 39.7938 459.261" stroke="#8CB2EF" stroke-width="0.5669" stroke-miterlimit="22.9256"/>
<path fill-rule="evenodd" clip-rule="evenodd" d="M50.496 375.518C44.4924 358.311 34.724 323.022 17.8563 340.776C0.988478 358.529 22.1747 369.476 29.4889 373.294C36.8037 377.112 48.5401 384.568 48.5401 384.568L50.496 375.518Z" fill="white" stroke="#8CB2EF" stroke-width="0.5669" stroke-miterlimit="22.9256"/>
<path fill-rule="evenodd" clip-rule="evenodd" d="M48.5401 384.568C63.352 376.41 74.1139 366.515 82.8528 360.86C91.5917 355.206 102.203 355.752 108.85 369.551C115.496 383.349 101.034 399.973 91.5507 401.833C82.0674 403.693 66.3676 399.051 58.0365 396.747C49.7058 394.441 46.5483 394.69 46.5483 394.69L48.5401 384.568Z" fill="white" stroke="#8CB2EF" stroke-width="0.5669" stroke-miterlimit="22.9256"/>
<path fill-rule="evenodd" clip-rule="evenodd" d="M42.02 424.344C33.984 410.16 20.5788 391.456 9.86664 383.708C-0.844337 375.961 -18.3092 383.982 -14.7109 402.317C-11.1126 420.654 3.00879 429.047 11.0909 430.088C19.1722 431.128 41.2733 431.337 41.2733 431.337L42.02 424.344Z" fill="white" stroke="#8CB2EF" stroke-width="0.5669" stroke-miterlimit="22.9256"/>
<path fill-rule="evenodd" clip-rule="evenodd" d="M38.6959 459.702C46.9325 446.432 58.7493 430.883 68.2657 424.108C79.0335 416.443 96.4395 424.597 92.7061 442.907C92.2256 445.266 91.5702 447.456 90.7781 449.488L38.6959 459.702Z" fill="white" stroke="#8CB2EF" stroke-width="0.5669" stroke-miterlimit="22.9256"/>
</g>
</svg>
