<svg width="50" height="115" viewBox="0 0 50 115" fill="none" xmlns="http://www.w3.org/2000/svg">
<path fill-rule="evenodd" clip-rule="evenodd" d="M-5.32633 111.692C-36.3371 92.2545 -42.4008 27.6531 -40.6846 8.89759C-38.9685 -9.85784 -16.8731 8.40361 -1.03996 24.4103C8.41853 33.9732 31.4065 29.8485 43.1811 57.6414C54.956 85.4342 39.6484 113.501 39.6484 113.501L-5.32633 111.692Z" fill="#D7DBF2"/>
<path d="M20.7545 113.564C20.561 99.4342 16.688 68.4669 -16.6084 29.0397" stroke="white" stroke-width="0.5669" stroke-miterlimit="22.9256"/>
<path d="M17.123 89.1167L30.4876 61.6439" stroke="white" stroke-width="0.5669" stroke-miterlimit="22.9256"/>
</svg>
