<svg width="68" height="164" viewBox="0 0 68 164" fill="none" xmlns="http://www.w3.org/2000/svg">
<path fill-rule="evenodd" clip-rule="evenodd" d="M-31.9535 163.205C25.0451 145.642 61.7497 46.479 66.9333 16.2275C72.1175 -14.0241 29.6501 5.43533 -2.00633 23.9789C-20.9206 35.0555 -55.3802 18.8943 -85.6021 57.7023C-115.825 96.5096 -103.522 147.135 -103.522 147.135L-31.9535 163.205Z" fill="#D7DBF2"/>
<path d="M-73.8023 155.183C-67.5558 133.018 -48.4398 85.8891 20.5576 37.8149" stroke="white" stroke-width="0.5669" stroke-miterlimit="22.9256"/>
</svg>
