<svg width="171" height="156" viewBox="0 0 171 156" fill="none" xmlns="http://www.w3.org/2000/svg">
<path fill-rule="evenodd" clip-rule="evenodd" d="M63.4797 62.3855C65.6045 34.9035 70.5696 21.9005 55.8082 23.2915C41.0474 24.6828 37.612 31.435 50.7619 58.8643C55.7781 69.329 59.5821 74.4191 59.5821 74.4191L63.4797 62.3855Z" fill="white" stroke="#8CB2EF" stroke-width="0.5669" stroke-miterlimit="22.9256"/>
<path fill-rule="evenodd" clip-rule="evenodd" d="M63.3851 62.5646C68.342 54.3693 94.3448 26.2885 112.867 40.3848C131.39 54.4811 108.089 69.5569 97.8489 70.9084C87.6092 72.2599 64.5448 74.738 58.9788 76.486C62.109 66.6202 63.3851 62.5646 63.3851 62.5646Z" fill="white" stroke="#8CB2EF" stroke-width="0.5669" stroke-miterlimit="22.9256"/>
<path d="M63.5322 61.7209C63.5322 61.7209 40.0176 130.838 39.7938 193.261" stroke="#8CB2EF" stroke-width="0.5669" stroke-miterlimit="22.9256"/>
<path fill-rule="evenodd" clip-rule="evenodd" d="M50.496 109.518C44.4924 92.3111 34.724 57.0221 17.8563 74.7757C0.988478 92.5292 22.1747 103.476 29.4889 107.294C36.8037 111.112 48.5401 118.568 48.5401 118.568L50.496 109.518Z" fill="white" stroke="#8CB2EF" stroke-width="0.5669" stroke-miterlimit="22.9256"/>
<path fill-rule="evenodd" clip-rule="evenodd" d="M48.5401 118.568C63.352 110.41 74.1139 100.515 82.8528 94.8605C91.5917 89.2065 102.203 89.7519 108.85 103.551C115.496 117.349 101.034 133.973 91.5507 135.833C82.0674 137.693 66.3676 133.051 58.0365 130.747C49.7058 128.441 46.5483 128.69 46.5483 128.69L48.5401 118.568Z" fill="white" stroke="#8CB2EF" stroke-width="0.5669" stroke-miterlimit="22.9256"/>
<path fill-rule="evenodd" clip-rule="evenodd" d="M42.02 158.344C33.984 144.16 20.5788 125.456 9.86664 117.708C-0.844337 109.961 -18.3092 117.982 -14.7109 136.317C-11.1126 154.654 3.00879 163.047 11.0909 164.088C19.1722 165.128 41.2733 165.337 41.2733 165.337L42.02 158.344Z" fill="white" stroke="#8CB2EF" stroke-width="0.5669" stroke-miterlimit="22.9256"/>
<path fill-rule="evenodd" clip-rule="evenodd" d="M38.6959 193.702C46.9325 180.432 58.7493 164.883 68.2657 158.108C79.0335 150.443 96.4395 158.597 92.7061 176.907C92.2256 179.266 91.5702 181.456 90.7781 183.488L38.6959 193.702Z" fill="white" stroke="#8CB2EF" stroke-width="0.5669" stroke-miterlimit="22.9256"/>
</svg>
