<svg width="510" height="491" viewBox="0 0 510 491" fill="none" xmlns="http://www.w3.org/2000/svg">
<path fill-rule="evenodd" clip-rule="evenodd" d="M45.8882 42.3756C35.052 48.4951 40.3237 58.8996 44.2234 62.8919C48.1232 66.8842 52.2542 66.8225 54.9825 71.6472C57.6954 76.4564 49.2176 88.649 55.7995 100.287C62.3659 111.924 78.2579 111.986 81.9419 115.732C85.6105 119.477 80.2618 123.007 82.2965 126.614C82.6664 127.277 83.2367 128.063 83.9766 128.88C84.5778 118.799 91.5758 114.129 91.0055 107.362C90.281 98.6682 70.0422 86.7993 68.8707 72.8957C68.0075 62.5374 70.7204 57.2195 71.8302 51.2234C66.0037 42.9922 58.312 36.9036 45.8882 42.3756Z" fill="#E6E8F6"/>
<path fill-rule="evenodd" clip-rule="evenodd" d="M119.075 160.125C115.098 155.963 90.6821 156.641 85.3179 138.977C79.9692 121.296 91.7148 116.056 90.9903 107.362C90.2659 98.6684 70.0271 86.7995 68.8556 72.8959C67.6995 58.9923 72.9866 54.1677 72.185 44.6109C71.3835 35.0541 53.7497 17.7132 63.7072 5.93672C73.6648 -5.83971 87.6763 6.38373 91.8073 12.3336C95.9383 18.2835 97.1714 29.3817 102.828 34.1601C108.485 38.9385 116.871 36.056 123.468 45.5666C130.065 55.0771 131.483 68.0867 139.483 74.8535C147.483 81.6203 160.123 81.5279 170.127 95.9247C180.115 110.306 170.096 140.194 166.196 143.077C162.836 145.543 163.653 168.433 154.697 175.647L138.296 177.019C130.25 174.707 126.844 168.248 119.075 160.125Z" fill="white" stroke="#8FB2EE" stroke-width="0.5669" stroke-miterlimit="22.9256"/>
<path d="M84.1152 31.3701C84.1152 31.3701 127.506 100.934 149.625 176.078" stroke="#8FB2EE" stroke-width="0.5669" stroke-miterlimit="22.9256"/>
<path d="M113.187 85.3202C113.187 85.3202 96.8938 74.1603 82.8823 73.5283" stroke="#8FB2EE" stroke-width="0.5669" stroke-miterlimit="22.9256"/>
<path d="M127.954 116.78C127.954 116.78 129.079 102.599 132.285 95.5391" stroke="#8FB2EE" stroke-width="0.5669" stroke-miterlimit="22.9256"/>
<path fill-rule="evenodd" clip-rule="evenodd" d="M65.1558 99.2849C54.4276 88.0942 47.6299 84.2099 54.5509 79.5394C61.4718 74.8843 65.3716 76.5953 69.441 93.2117C70.9978 99.547 71.152 103.123 71.152 103.123L65.1558 99.2849Z" fill="#8CB2EF"/>
<path fill-rule="evenodd" clip-rule="evenodd" d="M65.2641 99.3316C60.1774 97.5282 38.8596 94.5995 35.823 107.347C32.8019 120.079 48.3085 118.322 53.2411 115.27C58.1736 112.202 69.1022 105.05 72.1388 103.833C67.268 100.642 65.2641 99.3316 65.2641 99.3316Z" fill="#8CB2EF"/>
<path d="M52.4238 93.5815C52.4238 93.5815 70.7667 99.8551 95.414 121.435" stroke="#8CB2EF" stroke-width="0.5669" stroke-miterlimit="22.9256"/>
<path fill-rule="evenodd" clip-rule="evenodd" d="M91.7148 118.383C82.2197 119.03 74.1427 119.662 68.3315 120.309C62.5204 120.972 58.0965 124.995 60.1158 133.365C64.1851 150.136 89.3256 125.781 95.4142 121.435C96.709 120.51 93.3025 118.275 91.7148 118.383Z" fill="#8CB2EF"/>
<path fill-rule="evenodd" clip-rule="evenodd" d="M54.0733 94.3214C46.2429 85.9361 40.293 80.2637 35.4684 86.2444C30.6437 92.2251 49.5569 96.5873 54.0733 94.3214Z" fill="#8CB2EF"/>
<path fill-rule="evenodd" clip-rule="evenodd" d="M114.635 242.375C111.676 241.019 98.9743 246.506 92.4387 238.337C85.9185 230.167 90.9897 224.942 88.7855 220.518C86.5813 216.094 73.433 214.105 69.9031 207.03C66.3733 199.955 68.1459 196.318 65.7105 191.462C63.2751 186.607 50.358 181.181 53.1325 172.903C55.8917 164.626 65.8338 168.11 69.2558 170.375C72.6777 172.641 75.6526 178.221 79.6295 179.547C83.6064 180.873 87.4137 177.589 92.8857 181.212C98.3577 184.819 101.826 191.37 107.468 193.25C113.094 195.131 119.722 192.433 128.015 197.89C136.292 203.362 137.294 221.181 135.845 223.508C134.596 225.512 139.837 237.381 136.631 243.053L128.292 247.215C123.575 247.708 120.431 245.026 114.635 242.375Z" fill="#8CB2EF"/>
<path d="M69.2095 181.997C69.2095 181.997 106.635 209.481 134.057 244.347" stroke="white" stroke-width="0.5669" stroke-miterlimit="22.9256"/>
<path d="M95.8301 204.271C95.8301 204.271 84.9169 201.82 77.4102 204.44" stroke="white" stroke-width="0.5669" stroke-miterlimit="22.9256"/>
<path d="M110.196 217.728C110.196 217.728 107.807 210.036 108.007 205.643" stroke="white" stroke-width="0.5669" stroke-miterlimit="22.9256"/>
<path fill-rule="evenodd" clip-rule="evenodd" d="M113.371 200.803C76.1615 202.837 34.8207 150.028 25.8034 133.103C16.7707 116.179 45.7956 119.369 68.2232 124.132C81.6182 126.984 98.882 110.614 124.439 127.678C149.995 144.741 159.213 173.257 152.662 177.188C146.111 181.119 153.464 198.598 113.371 200.803Z" fill="#F5E9FA"/>
<path d="M136.616 187.809C128.554 175.894 107.93 151.709 57.5566 136.772" stroke="white" stroke-width="0.5669" stroke-miterlimit="22.9256"/>
<path d="M99.8225 154.529L96.9092 131.947" stroke="white" stroke-width="0.5669" stroke-miterlimit="22.9256"/>
<path d="M87.4909 148.132C87.4909 148.132 64.7858 159.168 54.0884 158.413" stroke="white" stroke-width="0.5669" stroke-miterlimit="22.9256"/>
<path fill-rule="evenodd" clip-rule="evenodd" d="M377.94 122.113C381.609 102.567 386.171 93.6271 375.474 93.473C364.777 93.3188 361.786 97.8968 369.093 118.598C371.883 126.49 374.21 130.436 374.21 130.436L377.94 122.113Z" fill="#8CB2EF"/>
<path fill-rule="evenodd" clip-rule="evenodd" d="M377.863 122.236C382.056 116.749 402.896 98.6215 415.073 110.167C427.266 121.712 409.385 130.714 401.925 130.899C394.48 131.068 377.74 131.053 373.609 131.885C376.63 125.041 377.863 122.236 377.863 122.236Z" fill="#8CB2EF"/>
<path d="M387.605 107.053C387.605 107.053 372.314 126.66 361.016 167.107" stroke="#8CB2EF" stroke-width="0.5669" stroke-miterlimit="22.9256"/>
<path fill-rule="evenodd" clip-rule="evenodd" d="M362.865 161.25C373.501 155.284 382.611 150.29 389.316 146.915C396.021 143.539 403.589 144.757 407.289 155.161C414.688 176.017 370.618 167.523 361.031 167.123C358.981 167.03 361.077 162.252 362.865 161.25Z" fill="#8CB2EF"/>
<path fill-rule="evenodd" clip-rule="evenodd" d="M386.356 109.011C388.884 94.5215 391.274 84.2402 400.661 87.2768C410.048 90.3134 392.815 108.271 386.356 109.011Z" fill="#8CB2EF"/>
<path fill-rule="evenodd" clip-rule="evenodd" d="M343.366 281.989C400.383 264.417 437.115 165.242 442.294 134.984C447.474 104.726 404.992 124.194 373.331 142.738C354.403 153.82 319.937 137.651 289.709 176.464C259.467 215.277 271.783 265.912 271.783 265.912L343.366 281.989Z" fill="#D7DBF2"/>
<path d="M301.502 273.973C307.745 251.808 326.874 204.671 395.898 156.579" stroke="white" stroke-width="0.5669" stroke-miterlimit="22.9256"/>
<path d="M317.501 236.996L308.006 188.117" stroke="white" stroke-width="0.5669" stroke-miterlimit="22.9256"/>
<path fill-rule="evenodd" clip-rule="evenodd" d="M438.071 233.942C457.693 204.809 471.365 193.511 454.117 185.788C436.868 178.066 428.822 183.384 426.171 222.058C425.154 236.809 426.186 244.84 426.186 244.84L438.071 233.942Z" fill="white" stroke="#8CB2EF" stroke-width="0.5669" stroke-miterlimit="22.9256"/>
<path fill-rule="evenodd" clip-rule="evenodd" d="M437.855 234.081C448.506 228.116 494.98 213.303 506.664 240.57C518.348 267.838 483.034 269.903 470.841 264.971C458.633 260.038 431.504 248.293 424.229 246.736C433.894 237.78 437.855 234.081 437.855 234.081Z" fill="white" stroke="#8CB2EF" stroke-width="0.5669" stroke-miterlimit="22.9256"/>
<path d="M438.548 233.233C438.548 233.233 369.061 295.091 329.601 364.146" stroke="#8CB2EF" stroke-width="0.5669" stroke-miterlimit="22.9256"/>
<path fill-rule="evenodd" clip-rule="evenodd" d="M394.063 278.042C398.209 255.199 409.554 209.943 379.697 219.021C349.839 228.116 366.456 253.549 372.174 262.382C377.893 271.214 386.217 286.844 386.217 286.844L394.063 278.042Z" fill="white" stroke="#8CB2EF" stroke-width="0.5669" stroke-miterlimit="22.9256"/>
<path fill-rule="evenodd" clip-rule="evenodd" d="M386.202 286.844C407.751 287.106 425.909 282.898 439.15 282.112C452.391 281.341 463.812 288.601 462.518 308.069C461.223 327.537 434.741 336.894 423.057 332.994C411.373 329.094 396.884 314.096 389.085 306.312C381.3 298.528 377.632 296.817 377.632 296.817L386.202 286.844Z" fill="white" stroke="#8CB2EF" stroke-width="0.5669" stroke-miterlimit="22.9256"/>
<path fill-rule="evenodd" clip-rule="evenodd" d="M353.986 326.843C353.986 306.065 350.873 276.917 343.859 261.595C336.846 246.273 312.445 244.208 304.907 266.79C297.385 289.371 307.759 307.545 316.067 313.787C324.376 320.015 348.745 334.134 348.745 334.134L353.986 326.843Z" fill="white" stroke="#8CB2EF" stroke-width="0.5669" stroke-miterlimit="22.9256"/>
<path fill-rule="evenodd" clip-rule="evenodd" d="M328.09 363.961C345.555 354.419 368.429 344.601 383.242 343.075C399.997 341.333 414.178 361.31 398.533 379.267C396.514 381.579 394.418 383.599 392.26 385.356L328.09 363.961Z" fill="white" stroke="#8CB2EF" stroke-width="0.5669" stroke-miterlimit="22.9256"/>
<path fill-rule="evenodd" clip-rule="evenodd" d="M452.853 340.054C463.69 346.173 458.418 356.578 454.518 360.57C450.603 364.562 446.472 364.5 443.759 369.325C441.046 374.134 449.524 386.327 442.942 397.965C436.376 409.602 420.484 409.664 416.8 413.41C413.131 417.155 418.48 420.685 416.445 424.307C416.075 424.97 415.505 425.756 414.765 426.573C414.164 416.493 407.166 411.822 407.736 405.055C408.461 396.362 428.715 384.493 429.871 370.589C430.734 360.231 428.021 354.913 426.911 348.917C432.723 340.67 440.43 334.582 452.853 340.054Z" fill="#F5E9FA"/>
<path fill-rule="evenodd" clip-rule="evenodd" d="M379.651 457.803C383.628 453.641 408.044 454.319 413.408 436.655C418.757 418.975 407.011 413.734 407.736 405.04C408.46 396.347 428.715 384.478 429.871 370.574C431.027 356.671 425.74 351.846 426.541 342.289C427.343 332.732 444.976 315.391 435.019 303.615C425.061 291.839 411.05 304.062 406.919 310.012C402.788 315.962 401.555 327.06 395.913 331.854C390.256 336.632 381.871 333.75 375.274 343.26C368.661 352.771 367.258 365.78 359.258 372.547C351.258 379.314 338.619 379.221 328.615 393.618C318.626 408.015 328.646 437.888 332.545 440.77C335.906 443.237 335.089 466.127 344.044 473.34L359.89 473.664C367.921 471.337 371.882 465.926 379.651 457.803Z" fill="white" stroke="#8FB2EE" stroke-width="0.5669" stroke-miterlimit="22.9256"/>
<path d="M414.611 329.048C414.611 329.048 371.22 398.613 349.101 473.757" stroke="#8FB2EE" stroke-width="0.5669" stroke-miterlimit="22.9256"/>
<path d="M385.54 382.998C385.54 382.998 401.833 371.839 415.844 371.207" stroke="#8FB2EE" stroke-width="0.5669" stroke-miterlimit="22.9256"/>
<path d="M370.788 414.459C370.788 414.459 369.663 400.277 366.457 393.218" stroke="#8FB2EE" stroke-width="0.5669" stroke-miterlimit="22.9256"/>
<path fill-rule="evenodd" clip-rule="evenodd" d="M388.051 439.506C401.816 425.155 410.525 420.177 401.662 414.196C392.799 408.215 387.789 410.404 382.564 431.722C380.575 439.845 380.375 444.439 380.375 444.439L388.051 439.506Z" fill="#8CB2EF"/>
<path fill-rule="evenodd" clip-rule="evenodd" d="M387.913 439.553C394.433 437.256 421.778 433.479 425.662 449.818C429.547 466.157 409.647 463.907 403.312 459.976C396.976 456.046 382.98 446.874 379.081 445.302C385.354 441.233 387.913 439.553 387.913 439.553Z" fill="#8CB2EF"/>
<path d="M404.375 432.185C404.375 432.185 380.838 440.231 349.254 467.899" stroke="#8CB2EF" stroke-width="0.5669" stroke-miterlimit="22.9256"/>
<path fill-rule="evenodd" clip-rule="evenodd" d="M354.002 463.999C366.179 464.831 376.537 465.633 383.998 466.481C391.458 467.328 397.131 472.477 394.526 483.221C389.316 504.723 357.069 473.494 349.27 467.914C347.605 466.712 351.967 463.86 354.002 463.999Z" fill="#8CB2EF"/>
<path fill-rule="evenodd" clip-rule="evenodd" d="M402.264 433.14C412.298 422.396 419.928 415.105 426.125 422.782C432.321 430.458 408.075 436.053 402.264 433.14Z" fill="#8CB2EF"/>
<path d="M317.609 43.9946H133.024V473.649H317.609V43.9946Z" fill="white" stroke="#8CB2EF" stroke-width="0.5669" stroke-miterlimit="22.9256"/>
<path fill-rule="evenodd" clip-rule="evenodd" d="M187.514 473.649C184.215 462.304 177.603 443.977 164.393 437.873C151.183 431.768 141.919 443.977 127.383 442.235C112.848 440.493 82.4508 378.543 44.7786 387.268C7.10633 395.992 41.9115 473.649 41.9115 473.649H187.514Z" fill="#E6E8F6"/>
<path fill-rule="evenodd" clip-rule="evenodd" d="M46.1964 437.58C43.9768 424.647 41.0481 418.698 48.1078 418.713C55.1675 418.728 57.0943 421.78 52.0692 435.36C50.1579 440.539 48.5702 443.129 48.5702 443.129L46.1964 437.58Z" fill="#8CB2EF"/>
<path fill-rule="evenodd" clip-rule="evenodd" d="M46.2427 437.657C43.5298 433.989 29.9654 421.827 21.7959 429.318C13.6263 436.809 25.3411 442.944 30.2582 443.129C35.1754 443.314 46.2119 443.484 48.9402 444.069C47.0289 439.522 46.2427 437.657 46.2427 437.657Z" fill="#8CB2EF"/>
<path d="M39.9692 427.545C39.9692 427.545 49.8651 440.647 56.9094 467.452" stroke="#8CB2EF" stroke-width="0.5669" stroke-miterlimit="22.9256"/>
<path fill-rule="evenodd" clip-rule="evenodd" d="M55.7535 463.568C48.7863 459.529 42.8364 456.138 38.4434 453.842C34.0504 451.545 29.0408 452.269 26.4974 459.098C21.3953 472.786 50.5744 467.622 56.9096 467.452C58.2506 467.422 56.925 464.246 55.7535 463.568Z" fill="#8CB2EF"/>
<path fill-rule="evenodd" clip-rule="evenodd" d="M40.7707 428.84C39.2447 419.252 37.7804 412.439 31.553 414.351C25.3411 416.262 36.5318 428.285 40.7707 428.84Z" fill="#8CB2EF"/>
<path fill-rule="evenodd" clip-rule="evenodd" d="M82.0191 472.785C101.117 461.271 105.495 421.995 104.647 410.558C103.799 399.121 90.1423 410.003 80.3389 419.591C74.4815 425.31 60.5163 422.55 53.0558 439.352C45.5954 456.153 54.6127 473.402 54.6127 473.402L82.0191 472.785Z" fill="#D7DBF2"/>
<path d="M66.127 473.649C66.389 465.047 69.0865 446.227 89.7877 422.566" stroke="white" stroke-width="0.5669" stroke-miterlimit="22.9256"/>
<path d="M68.5934 458.805L60.7476 441.927" stroke="white" stroke-width="0.5669" stroke-miterlimit="22.9256"/>
<path fill-rule="evenodd" clip-rule="evenodd" d="M119.429 414.319C122.944 401.68 126.458 396.054 119.429 395.345C112.4 394.635 110.181 397.487 113.803 411.499C115.19 416.847 116.501 419.576 116.501 419.576L119.429 414.319Z" stroke="#8CB2EF" stroke-width="0.5669" stroke-miterlimit="22.9256"/>
<path fill-rule="evenodd" clip-rule="evenodd" d="M119.368 414.397C122.435 411.021 137.156 400.277 144.524 408.57C151.892 416.847 139.622 421.764 134.705 421.456C129.788 421.148 118.798 420.192 116.023 420.501C118.397 416.169 119.368 414.397 119.368 414.397Z" stroke="#8CB2EF" stroke-width="0.5669" stroke-miterlimit="22.9256"/>
<path d="M119.507 414.011C119.507 414.011 102.181 444.145 96.3545 473.294" stroke="#8CB2EF" stroke-width="0.5669" stroke-miterlimit="22.9256"/>
<path fill-rule="evenodd" clip-rule="evenodd" d="M109.04 435.16C107.807 426.574 106.481 409.187 96.9707 415.938C87.4602 422.69 96.3542 429.75 99.4216 432.2C102.489 434.651 107.283 439.214 107.283 439.214L109.04 435.16Z" stroke="#8CB2EF" stroke-width="0.5669" stroke-miterlimit="22.9256"/>
<path fill-rule="evenodd" clip-rule="evenodd" d="M107.299 439.213C114.975 436.763 120.909 433.125 125.503 431.275C130.111 429.441 135.013 430.659 136.847 437.718C138.682 444.778 130.404 451.221 125.796 451.221C121.187 451.221 114.281 447.614 110.597 445.78C106.913 443.946 105.418 443.761 105.418 443.761L107.299 439.213Z" stroke="#8CB2EF" stroke-width="0.5669" stroke-miterlimit="22.9256"/>
<path fill-rule="evenodd" clip-rule="evenodd" d="M100.593 457.186C98.1424 449.818 93.5952 439.861 89.2946 435.252C84.9941 430.643 76.1001 432.801 76.1001 441.695C76.1001 450.589 81.9267 455.815 85.6106 457.032C89.2946 458.25 99.6067 460.377 99.6067 460.377L100.593 457.186Z" stroke="#8CB2EF" stroke-width="0.5669" stroke-miterlimit="22.9256"/>
<path fill-rule="evenodd" clip-rule="evenodd" d="M95.7993 473.402C100.871 467.961 107.807 461.78 112.878 459.483C118.612 456.893 125.996 462.288 122.574 470.504C122.127 471.568 121.618 472.523 121.063 473.402H95.7993Z" stroke="#8CB2EF" stroke-width="0.5669" stroke-miterlimit="22.9256"/>
<path fill-rule="evenodd" clip-rule="evenodd" d="M199.752 9.26587L317.609 43.994V473.649H199.752V9.26587Z" stroke="#8CB2EF" stroke-width="0.5669" stroke-miterlimit="22.9256"/>
<path fill-rule="evenodd" clip-rule="evenodd" d="M158.288 157.396C168.014 160.448 174.704 219.516 174.704 240.864C174.704 262.213 177.74 286.706 179.205 294.367C176.723 295.708 174.226 297.034 171.744 298.375C162.311 278.614 158.966 255.909 157.471 246.475C155.976 237.042 152.461 202.39 152.461 202.39C152.461 202.39 152.322 170.807 158.288 157.396Z" fill="#F1BCBC"/>
<path fill-rule="evenodd" clip-rule="evenodd" d="M158.288 157.396C165.532 159.678 174.442 190.182 177.232 215.755L154.157 218.298C152.831 209.743 152.461 202.39 152.461 202.39C152.461 202.39 152.322 170.807 158.288 157.396Z" fill="white" stroke="#2F2E6B" stroke-width="0.5669" stroke-miterlimit="22.9256"/>
<path d="M105.248 454.166H93.5645V467.823H105.248V454.166Z" fill="#F1BCBC"/>
<path fill-rule="evenodd" clip-rule="evenodd" d="M115.128 473.649C115.128 472.478 115.298 469.981 113.787 469.148C112.693 468.547 111.984 468.825 111.321 468.64C110.535 468.408 106.095 462.936 105.232 461.919H97.1398L93.5483 465.665V473.649H115.128Z" fill="#2F2E6B"/>
<path fill-rule="evenodd" clip-rule="evenodd" d="M92.0378 247.015C83.6988 320.833 85.3789 396.101 89.7874 459.175C95.7064 459.175 102.489 459.175 108.408 459.175C115.097 398.397 121.787 327.538 123.884 247.015H92.0378Z" fill="#7ACBF6"/>
<path d="M161.803 454.521H147.375V468.177H161.803V454.521Z" fill="#F1BCBC"/>
<path fill-rule="evenodd" clip-rule="evenodd" d="M151.198 247.015C156.022 286.228 160.107 326.49 161.803 363.87C163.375 398.582 162.743 430.736 162.573 459.175L145.171 461.565C136.677 427.576 135.46 390.767 134.396 362.498C125.826 334.089 119.753 311.168 116.701 284.702C115.421 273.558 119.938 258.683 118.55 247.015H151.198Z" fill="#7ACBF6"/>
<path d="M151.198 243.47H92.0381V247H151.198V243.47Z" fill="#2F2E6B"/>
<path fill-rule="evenodd" clip-rule="evenodd" d="M147.375 473.064H188.207C188.207 473.064 188.022 469.565 185.941 468.887C183.876 468.224 168.693 465.033 168.693 465.033C168.693 465.033 164.685 462.212 163.56 461.549C162.435 460.887 161.371 461.149 159.275 462.382L154.311 465.311L147.375 465.326V473.064Z" fill="#2F2E6B"/>
<path fill-rule="evenodd" clip-rule="evenodd" d="M92.2385 243.47H151.198L158.273 157.381C148.315 151.832 135.784 148.919 121.602 148.919C107.421 148.919 94.8897 151.848 84.9321 157.381L90.9899 204.225L92.2385 243.47Z" fill="#E986E9"/>
<path fill-rule="evenodd" clip-rule="evenodd" d="M84.9628 157.396C75.2364 160.448 67.0669 219.146 67.0669 240.494C67.0669 261.858 70.0418 299.099 70.0418 299.099H78.3809C78.3809 299.099 83.1747 251.068 84.6699 241.635C86.1651 232.201 90.7893 202.375 90.7893 202.375C90.7893 202.375 90.9126 170.807 84.9628 157.396Z" fill="#F1BCBC"/>
<path fill-rule="evenodd" clip-rule="evenodd" d="M84.9631 157.396C77.7184 159.678 68.809 190.182 66.019 215.755L89.0941 218.298C90.4197 209.743 90.7896 202.39 90.7896 202.39C90.7896 202.39 90.9129 170.807 84.9631 157.396Z" fill="white" stroke="#2F2E6B" stroke-width="0.5669" stroke-miterlimit="22.9256"/>
<path fill-rule="evenodd" clip-rule="evenodd" d="M133.287 149.613C133.287 166.183 109.965 166.183 109.965 149.613L109.935 121.544L131.114 124.534L133.287 149.613Z" fill="#F1BCBC"/>
<path fill-rule="evenodd" clip-rule="evenodd" d="M120.293 90.8538C116.285 91.5936 104.231 93.952 106.512 109.705C108.794 125.459 112.031 130.222 114.312 132.272C117.241 134.892 121.695 137.59 131.668 137.312C137.325 136.094 137.726 132.534 138.99 128.896C139.992 125.998 141.95 120.172 139.237 104.495C136.524 88.8191 124.331 90.3143 120.293 90.8538Z" fill="#F1BCBC"/>
<path fill-rule="evenodd" clip-rule="evenodd" d="M110.659 101.736C109.364 102.815 114.127 114.684 107.468 114.838C102.335 108.934 100.439 100.904 105.526 96.8497C105.803 90.9461 111.121 87.7554 118.366 87.0309C122.543 86.5993 127.645 89.7592 132.377 89.158C139.761 88.2332 142.628 92.3642 140.562 96.7881C139.668 98.7148 135.845 99.578 134.073 99.1927C131.622 98.6686 125.965 103.678 121.479 104.094C116.362 104.588 114.25 102.121 110.659 101.736Z" fill="#2F2E6B"/>
<path fill-rule="evenodd" clip-rule="evenodd" d="M108.809 116.303C108.146 115.44 107.406 114.777 106.127 114.716C104.847 114.654 102.72 115.64 103.275 119.124C103.83 122.623 107.221 125.151 109.009 124.442C110.782 123.748 108.809 116.303 108.809 116.303Z" fill="#F1BCBC"/>
<path fill-rule="evenodd" clip-rule="evenodd" d="M123.221 113.744C123.992 113.621 124.762 114.299 124.947 115.239C125.132 116.179 124.655 117.043 123.884 117.151C123.113 117.274 122.342 116.596 122.157 115.655C121.972 114.715 122.45 113.867 123.221 113.744Z" fill="#2F2E6B"/>
<path d="M107.714 118.229C107.652 117.798 105.618 116.04 104.4 117.643" stroke="#2F2E6B" stroke-width="0.4252" stroke-miterlimit="22.9256"/>
<path fill-rule="evenodd" clip-rule="evenodd" d="M135.953 112.048C135.182 112.171 134.658 113.05 134.766 114.006C134.889 114.961 135.598 115.624 136.369 115.501C137.14 115.377 137.664 114.499 137.556 113.543C137.448 112.587 136.724 111.925 135.953 112.048Z" fill="#2F2E6B"/>
<path d="M133.549 108.656C133.256 108.718 132.315 109.643 132.362 110.783C132.5 113.943 134.473 119.724 134.535 120.88C134.643 122.467 132.208 122.683 132.208 122.683" stroke="#2F2E6B" stroke-width="0.5669" stroke-miterlimit="22.9256"/>
<path d="M129.341 127.477C129.341 127.477 132.377 129.08 136.632 126.244" stroke="#2F2E6B" stroke-width="0.5669" stroke-miterlimit="22.9256"/>
<path d="M120.23 110.692C121.124 110.198 123.884 109.936 125.564 110.075" stroke="#2F2E6B" stroke-width="0.5669" stroke-miterlimit="22.9256"/>
<path d="M109.148 94.7837C108.331 100.009 112.739 106.113 118.581 106.406" stroke="#2F2E6B" stroke-width="0.5669" stroke-miterlimit="22.9256"/>
<path d="M108.917 454.442H88.5547V459.467H108.917V454.442Z" fill="#2F2E6B"/>
<path fill-rule="evenodd" clip-rule="evenodd" d="M143.352 457.511L163.406 454.043L163.267 458.991L144.2 462.444L143.352 457.511Z" fill="#2F2E6B"/>
<path fill-rule="evenodd" clip-rule="evenodd" d="M125.256 290.821C125.256 290.821 143.814 356.023 143.907 361.742C143.999 367.445 143.922 448.293 147.39 456.817C148.1 458.574 147.822 460.069 146.928 461.333L145.186 461.58C136.693 427.591 135.475 390.782 134.412 362.513C128.909 344.262 124.439 328.278 121.14 312.17H121.186L125.256 290.821Z" fill="#2F2E6B"/>
<path d="M121.155 312.339L126.196 285.889" stroke="#2F2E6B" stroke-width="0.5669" stroke-miterlimit="22.9256"/>
<path fill-rule="evenodd" clip-rule="evenodd" d="M89.4331 264.325L109.795 257.959V262.969L89.4331 269.35V264.325Z" stroke="#2F2E6B" stroke-width="0.5669" stroke-miterlimit="22.9256"/>
<path fill-rule="evenodd" clip-rule="evenodd" d="M153.864 261.412L142.812 257.959V262.969L153.864 266.437V261.412Z" stroke="#2F2E6B" stroke-width="0.5669" stroke-miterlimit="22.9256"/>
<path d="M95.2135 455.63C93.8262 443.561 95.6759 366.999 97.0632 338.698" stroke="#2F2E6B" stroke-width="0.5669" stroke-miterlimit="22.9256"/>
<path d="M161.572 454.706C162.959 442.174 160.647 361.897 158.782 347.516" stroke="#2F2E6B" stroke-width="0.5669" stroke-miterlimit="22.9256"/>
<path fill-rule="evenodd" clip-rule="evenodd" d="M78.3808 299.1C79.0744 301.458 81.3095 306.175 81.6949 308.101C81.8182 308.733 81.8644 309.967 82.111 312.988C82.5581 316.024 83.4675 319.107 83.4675 319.107C83.4675 319.107 82.2035 319.277 81.4791 318.321C80.77 317.35 79.6139 315.346 79.4444 314.005C79.2594 312.679 79.1361 310.583 78.982 310.121C78.3192 311.847 77.8413 313.62 77.8413 313.62C78.165 315.5 78.8124 317.859 79.0899 319.231C79.7218 319.97 80.9241 321.99 80.9241 321.99C81.1862 321.99 82.5735 323.408 82.7584 324.071C81.9877 324.564 81.1862 324.672 81.1862 324.672C81.3712 324.903 81.4328 325.18 81.3866 325.427L78.8278 325.196L76.6236 323.947L75.5446 323.901L71.3982 320.587L69.4868 318.722L68.9165 312.495C68.9165 312.495 69.9801 303.323 69.9955 301.967C69.9955 301.628 69.9955 300.564 70.0109 299.115L78.3808 299.1Z" fill="#F1BCBC"/>
<path d="M81.186 324.656L79.9837 324.301L76.161 320.34L75.082 314.775" stroke="#2F2E6B" stroke-width="0.5669" stroke-miterlimit="22.9256"/>
<path d="M76.2844 324.04L73.6024 321.034L72.5542 316.024" stroke="#2F2E6B" stroke-width="0.5669" stroke-miterlimit="22.9256"/>
<path d="M109.964 124.965C111.49 129.158 113.032 131.131 114.296 132.256C117.224 134.876 121.679 137.574 131.652 137.296" stroke="#2F2E6B" stroke-width="0.5669" stroke-miterlimit="22.9256"/>
<path d="M138.728 108.318C137.742 108.01 134.998 108.303 133.379 108.781" stroke="#2F2E6B" stroke-width="0.5669" stroke-miterlimit="22.9256"/>
<path d="M130.882 129.111C130.882 129.111 132.084 129.528 134.227 129.42" stroke="#2F2E6B" stroke-width="0.5669" stroke-miterlimit="22.9256"/>
<path fill-rule="evenodd" clip-rule="evenodd" d="M171.745 298.375C172.639 300.656 173.779 305.758 174.643 307.515C174.92 308.086 175.644 309.088 177.325 311.631C178.835 314.313 180.007 317.288 180.007 317.288C180.007 317.288 181.116 316.641 181.086 315.438C181.055 314.236 180.716 311.939 180.053 310.783C179.375 309.612 178.188 307.885 178.034 307.423C179.621 308.379 181.086 309.488 181.086 309.488C181.98 311.169 182.92 313.434 183.552 314.698C183.506 315.654 183.799 317.997 183.799 317.997C183.598 318.167 183.367 320.14 183.629 320.756C184.538 320.664 185.232 320.278 185.232 320.278C185.232 320.571 185.34 320.833 185.54 320.987L187.421 319.23L188.392 316.887L189.209 316.194L190.442 311.045L190.797 308.394L187.421 303.138C187.421 303.138 180.947 296.556 180.115 295.492C179.899 295.23 179.251 294.383 178.357 293.257L171.745 298.375Z" fill="#F1BCBC"/>
<path d="M185.202 320.278L185.942 319.245L186.528 313.773L183.969 308.733" stroke="#2F2E6B" stroke-width="0.5669" stroke-miterlimit="22.9256"/>
<path d="M188.701 316.779L188.978 312.756L186.728 308.162" stroke="#2F2E6B" stroke-width="0.5669" stroke-miterlimit="22.9256"/>
<path fill-rule="evenodd" clip-rule="evenodd" d="M229.471 260.163C233.972 254.922 248.4 256.325 253.132 260.086C262.858 267.793 260.485 272.402 266.481 278.12C269.302 280.818 273.494 280.093 277.749 284.933C280.939 288.556 277.903 292.949 280.03 297.095C281.695 300.348 287.459 298.667 290.604 307.469C292.192 311.893 289.91 320.818 279.783 321.635C271.46 322.297 264.138 313.742 262.473 312.386C255.583 306.775 242.034 314.405 235.652 296.479C234.096 293.55 231.568 296.232 231.568 296.232C213.04 292.625 219.93 263.153 229.471 260.163Z" fill="#2F2E6B"/>
<path d="M279.767 323.823C262.904 323.808 264.384 310.875 258.665 309.457" stroke="#2F2E6B" stroke-width="0.5669" stroke-miterlimit="22.9256"/>
<path fill-rule="evenodd" clip-rule="evenodd" d="M242.573 470.582H250.45L257.001 405.257L240.631 404.887L242.573 470.582Z" fill="#F1BCBC"/>
<path fill-rule="evenodd" clip-rule="evenodd" d="M222.088 470.767H212.346L211.668 402.451L228.731 402.944L222.088 470.767Z" fill="#F1BCBC"/>
<path fill-rule="evenodd" clip-rule="evenodd" d="M185.433 307.253C185.233 306.837 185.31 306.298 185.402 306.097C185.495 305.897 189.271 307.623 189.271 307.623C189.271 307.623 186.173 307.808 185.433 307.253Z" fill="#EDBA68"/>
<path fill-rule="evenodd" clip-rule="evenodd" d="M196.531 317.55C196.253 316.163 195.144 308.641 195.02 308.363C194.897 308.086 191.675 304.756 191.675 304.756L186.173 303.369C186.173 303.369 187.128 304.787 187.622 305.111C188.115 305.45 189.841 305.758 189.841 305.758L191.29 307.639L189.163 306.961C189.163 306.961 182.966 305.681 182.704 305.527C182.442 305.373 183.09 306.807 183.814 307.254C184.539 307.701 187.005 308.533 187.005 308.533C187.005 308.533 183.537 308.101 183.136 308.07C183.059 308.363 183.352 308.98 183.83 309.288L183.568 309.334C183.568 309.334 183.83 310.413 184.708 311.169C185.602 311.924 186.373 312.063 186.373 312.063C186.373 312.063 187.683 313.943 187.945 314.221C188.207 314.514 189.04 316.286 189.348 317.057C189.656 317.828 191.151 320.248 191.645 320.51C192.138 320.772 193.34 320.926 193.34 320.926L196.531 317.55Z" fill="#F1BCBC"/>
<path d="M190.72 309.411C190.72 309.411 189.687 309.011 188.608 308.795C187.514 308.579 186.527 308.579 186.527 308.579" stroke="#2F2E6B" stroke-width="0.5669" stroke-miterlimit="22.9256"/>
<path d="M183.845 309.319C184.754 309.75 186.666 310.382 187.113 310.598C187.56 310.814 189.378 312.587 189.378 312.587" stroke="#2F2E6B" stroke-width="0.5669" stroke-miterlimit="22.9256"/>
<path fill-rule="evenodd" clip-rule="evenodd" d="M208.138 350.536C195.961 340.486 189.888 317.627 189.888 317.627L195.391 316.193C195.391 316.193 209.202 334.459 212.978 339.685L208.138 350.536Z" fill="#F1BCBC"/>
<path fill-rule="evenodd" clip-rule="evenodd" d="M225.586 310.922C229.764 317.704 212.376 346.159 209.14 351.554L202.311 343.862C204.746 337.881 210.403 316.903 211.421 314.467C213.147 310.305 222.981 306.683 225.586 310.922Z" fill="#F1BCBC"/>
<path fill-rule="evenodd" clip-rule="evenodd" d="M223.182 307.376C229.286 309.904 228.993 319.014 220.747 335.26L204.901 327.415C208.724 318.058 213.117 303.199 223.182 307.376Z" fill="white" stroke="#2F2E6B" stroke-width="0.5669" stroke-miterlimit="22.9256"/>
<path fill-rule="evenodd" clip-rule="evenodd" d="M254.519 331.746L259.637 310.876C254.766 307.176 247.953 303.569 241.494 302.953C239.043 302.722 236.485 302.336 233.88 302.614C226.496 303.369 222.072 304.448 219.19 306.128C212.963 309.781 213.764 317.843 213.302 323.438C210.697 355.978 206.427 374.505 206.52 407.183C228.469 416.54 250.018 408.956 267.066 407.523C268.022 398.752 259.452 355.053 254.519 331.746Z" fill="#8FB2EE"/>
<path fill-rule="evenodd" clip-rule="evenodd" d="M227.513 307.978C227.945 315.793 240.137 313.403 243.559 306.313L244.669 288.248L230.026 289.727C229.193 295.816 228.346 301.889 227.513 307.978Z" fill="#F1BCBC"/>
<path fill-rule="evenodd" clip-rule="evenodd" d="M243.945 300.039L244.67 288.248L242.558 288.463C238.15 290.02 233.51 295.446 229.148 296.17L227.915 305.126C229.071 306.529 230.936 307.115 233.88 306.066C236.793 305.034 241.063 302.29 243.945 300.039Z" fill="#D6A7A7"/>
<path fill-rule="evenodd" clip-rule="evenodd" d="M241.956 263.894C245.132 264.818 254.642 267.747 251.467 280.233C248.292 292.734 245.301 296.294 243.282 297.759C240.708 299.624 236.885 301.412 228.87 300.364C224.415 298.899 222.581 295.308 221.872 292.271C221.301 289.851 220.192 285.119 223.691 272.71C227.205 260.302 238.75 263.123 241.956 263.894Z" fill="#F1BCBC"/>
<path d="M231.521 279.662C231.135 282.19 228.777 283.238 228.608 284.163C228.392 285.427 230.334 285.812 230.334 285.812" stroke="#2F2E6B" stroke-width="0.5669" stroke-miterlimit="22.9256"/>
<path d="M231.906 290.221C228.808 290.606 226.603 289.311 225.879 288.448" stroke="#2F2E6B" stroke-width="0.5669" stroke-miterlimit="22.9256"/>
<path d="M241.34 278.428C240.785 277.812 238.75 276.871 237.425 276.532" stroke="#2F2E6B" stroke-width="0.5669" stroke-miterlimit="22.9256"/>
<path d="M247.398 292.256C245.825 295.508 244.407 296.957 243.297 297.759C240.723 299.624 236.901 301.412 228.885 300.364" stroke="#2F2E6B" stroke-width="0.5669" stroke-miterlimit="22.9256"/>
<path d="M225.371 274.406C226.188 274.236 228.377 274.714 229.641 275.223" stroke="#2F2E6B" stroke-width="0.5669" stroke-miterlimit="22.9256"/>
<path fill-rule="evenodd" clip-rule="evenodd" d="M237.779 281.589C238.55 281.805 238.812 282.714 238.38 283.623C237.949 284.533 236.962 285.103 236.191 284.887C235.421 284.672 235.159 283.762 235.59 282.853C236.022 281.943 237.008 281.388 237.779 281.589Z" fill="#2F2E6B"/>
<path d="M229.455 292.317C229.455 292.317 228.161 291.762 227.189 291.546" stroke="#2F2E6B" stroke-width="0.5669" stroke-miterlimit="22.9256"/>
<path fill-rule="evenodd" clip-rule="evenodd" d="M226.466 278.337C227.236 278.552 227.498 279.462 227.067 280.371C226.635 281.281 225.649 281.851 224.878 281.635C224.107 281.42 223.845 280.51 224.277 279.601C224.708 278.691 225.695 278.121 226.466 278.337Z" fill="#2F2E6B"/>
<path fill-rule="evenodd" clip-rule="evenodd" d="M235.837 473.649C235.852 472.647 235.791 470.52 236.823 469.811C237.579 469.287 238.057 469.534 238.488 469.364C239.028 469.164 242.11 464.493 242.727 463.63H248.199L250.557 466.836L250.419 473.649H235.837Z" fill="#E986E9"/>
<path fill-rule="evenodd" clip-rule="evenodd" d="M222.211 473.341H201.525C201.525 473.341 200.723 470.459 201.895 469.472C204.839 467.006 208.122 466.728 210.928 465.572C211.714 465.249 212.392 465.31 213.841 466.143L217.278 468.116L221.964 468.131L222.211 473.341Z" fill="#E986E9"/>
<path fill-rule="evenodd" clip-rule="evenodd" d="M210.928 465.572L211.483 462.026C211.483 462.026 214.581 462.597 215.028 463.938C215.46 465.279 213.795 467.868 213.795 467.868L210.928 465.572Z" fill="#E986E9"/>
<path fill-rule="evenodd" clip-rule="evenodd" d="M230.412 265.619C227.529 264.926 222.443 271.631 222.088 278.398C221.348 266.852 227.545 259.145 240.092 260.825C252.639 262.506 254.227 274.02 250.789 283.361C248.708 277.658 244.454 277.951 241.279 276.27C232.477 271.677 234.913 266.128 230.412 265.619Z" fill="#2F2E6B"/>
<path fill-rule="evenodd" clip-rule="evenodd" d="M255.351 274.144C254.673 273.558 253.625 273.65 253.055 274.329L248.384 279.831C247.799 280.51 247.891 281.542 248.569 282.128C249.247 282.714 250.28 282.621 250.866 281.943L255.536 276.44C256.122 275.762 256.045 274.729 255.351 274.144Z" fill="#E986E9"/>
<path fill-rule="evenodd" clip-rule="evenodd" d="M252.376 271.585C251.698 271 250.665 271.092 250.08 271.77L245.409 277.273C244.823 277.952 244.916 278.984 245.594 279.57C246.272 280.156 247.305 280.063 247.891 279.385L252.561 273.882C253.147 273.204 253.055 272.171 252.376 271.585Z" fill="#E986E9"/>
<path fill-rule="evenodd" clip-rule="evenodd" d="M248.738 284.008C249.447 283.253 250.233 282.683 251.451 282.76C252.669 282.822 254.611 283.978 253.732 287.245C252.854 290.513 249.37 292.594 247.736 291.746C246.102 290.899 248.738 284.008 248.738 284.008Z" fill="#F1BCBC"/>
<path d="M249.587 285.951C249.695 285.535 251.791 284.07 252.808 285.735" stroke="#2F2E6B" stroke-width="0.4252" stroke-miterlimit="22.9256"/>
<path fill-rule="evenodd" clip-rule="evenodd" d="M239.49 286.676C237.764 287.2 236.608 288.448 236.916 289.466C237.224 290.483 238.874 290.884 240.6 290.36C242.326 289.836 243.482 288.587 243.174 287.57C242.866 286.552 241.217 286.152 239.49 286.676Z" fill="#E986E9"/>
<path fill-rule="evenodd" clip-rule="evenodd" d="M278.936 306.313C278.92 305.851 279.228 305.388 279.383 305.25C279.552 305.111 282.28 308.24 282.28 308.24C282.28 308.24 279.383 307.13 278.936 306.313Z" fill="#EDBA68"/>
<path fill-rule="evenodd" clip-rule="evenodd" d="M284.777 320.278C285.101 318.907 287.197 311.6 287.197 311.292C287.197 310.984 285.64 306.621 285.64 306.621L281.201 303.076C281.201 303.076 281.494 304.756 281.802 305.265C282.126 305.774 283.56 306.776 283.56 306.776L284.099 309.088L282.45 307.593C282.45 307.593 277.332 303.862 277.163 303.616C276.978 303.369 276.978 304.941 277.471 305.65C277.964 306.359 279.845 308.132 279.845 308.132C279.845 308.132 276.87 306.298 276.5 306.113C276.299 306.359 276.33 307.038 276.623 307.5L276.361 307.423C276.361 307.423 276.161 308.502 276.654 309.566C277.147 310.629 277.795 311.076 277.795 311.076C277.795 311.076 278.211 313.327 278.334 313.697C278.457 314.066 278.473 316.039 278.442 316.856C278.411 317.689 278.766 320.51 279.105 320.957C279.444 321.404 280.461 322.036 280.461 322.036L284.777 320.278Z" fill="#F1BCBC"/>
<path d="M282.866 310.475C282.866 310.475 282.095 309.689 281.201 309.041C280.292 308.394 279.398 307.993 279.398 307.993" stroke="#2F2E6B" stroke-width="0.5669" stroke-miterlimit="22.9256"/>
<path d="M276.639 307.546C277.286 308.317 278.766 309.673 279.09 310.058C279.413 310.444 280.323 312.802 280.323 312.802" stroke="#2F2E6B" stroke-width="0.5669" stroke-miterlimit="22.9256"/>
<path fill-rule="evenodd" clip-rule="evenodd" d="M266.974 352.601C279.151 342.551 285.224 319.692 285.224 319.692L279.706 318.258C279.706 318.258 265.895 336.524 262.118 341.75L266.974 352.601Z" fill="#F1BCBC"/>
<path fill-rule="evenodd" clip-rule="evenodd" d="M249.525 312.987C245.348 319.769 262.735 348.224 265.956 353.619L272.785 345.927C270.349 339.946 264.692 318.968 263.675 316.532C261.949 312.37 252.13 308.748 249.525 312.987Z" fill="#F1BCBC"/>
<path fill-rule="evenodd" clip-rule="evenodd" d="M251.914 309.442C245.81 311.97 246.103 321.079 254.349 337.326L270.195 329.48C266.372 320.124 261.979 305.264 251.914 309.442Z" fill="white" stroke="#2F2E6B" stroke-width="0.5669" stroke-miterlimit="22.9256"/>
<path fill-rule="evenodd" clip-rule="evenodd" d="M299.822 157.536C291.251 165.336 290.126 198.461 287.537 221.12C284.947 243.778 284.176 287.508 284.176 287.508C286.134 288.819 288.076 290.129 290.034 291.439C293.98 278.152 300.762 235.994 301.903 226.561C303.028 217.127 307.405 185.328 307.405 185.328C307.405 185.328 306.296 170.946 299.822 157.536Z" fill="#F1BCBC"/>
<path fill-rule="evenodd" clip-rule="evenodd" d="M290.033 291.424C289.108 293.243 287.736 297.374 286.889 298.761C286.611 299.208 285.933 299.979 284.33 301.952C282.866 304.048 281.648 306.422 281.648 306.422C281.648 306.422 280.785 305.805 280.908 304.803C281.031 303.801 281.494 301.936 282.141 301.027C282.789 300.117 283.914 298.776 284.083 298.406C282.696 299.069 281.386 299.871 281.386 299.871C280.507 301.181 279.536 302.984 278.92 303.986C278.873 304.788 278.442 306.699 278.442 306.699C278.596 306.853 278.627 308.503 278.365 309.011C277.609 308.857 277.07 308.472 277.07 308.472C277.039 308.718 276.931 308.919 276.762 309.042L275.343 307.439L274.727 305.42L274.11 304.772L273.509 300.395L273.432 298.175L276.654 294.09C276.654 294.09 282.557 289.158 283.343 288.341C283.544 288.14 284.16 287.493 284.977 286.63L290.033 291.424Z" fill="#F1BCBC"/>
<path d="M277.085 308.471L276.546 307.562L276.515 302.984L279.058 299.007" stroke="#2F2E6B" stroke-width="0.5669" stroke-miterlimit="22.9256"/>
<path d="M274.465 305.28L274.557 301.936L276.808 298.298" stroke="#2F2E6B" stroke-width="0.5669" stroke-miterlimit="22.9256"/>
<path fill-rule="evenodd" clip-rule="evenodd" d="M326.426 226.346C319.166 226.346 311.782 226.346 304.522 226.346C306.372 215.217 306.973 202.469 306.619 191.016C304.122 187.132 301.655 185.236 300.715 181.814C299.698 178.099 300.9 171.749 301.609 169.437C300.993 166.385 300.191 160.681 299.806 157.537C305.524 151.926 315.759 147.163 326.411 147.163C337.077 147.163 347.297 151.911 353.015 157.537C351.489 170.022 347.513 181.598 345.987 194.084C345.617 205.537 345.324 215.217 347.173 226.346C339.929 226.346 333.686 226.346 326.426 226.346Z" fill="#E986E9"/>
<path d="M334.981 193.744C334.981 193.744 325.178 190.831 311.922 189.768" stroke="#2F2E6B" stroke-width="0.5669" stroke-miterlimit="22.9256"/>
<path fill-rule="evenodd" clip-rule="evenodd" d="M359.088 275.193C356.622 338.746 351.674 405.011 350.01 466.036L345.709 471.354L331.112 473.034C331.112 470.475 332.499 470.629 334.842 468.641C335.058 468.456 335.751 467.747 336.568 466.868C337.894 465.435 339.512 463.554 339.759 462.753C339.913 411.377 330.048 342.168 326.102 286.8L317.146 227.964H346.88C354.449 239.031 358.41 257.698 359.088 275.193Z" fill="#F1BCBC"/>
<path fill-rule="evenodd" clip-rule="evenodd" d="M291.051 275.193C291.528 288.896 296.122 303.262 296.214 317.998C296.538 367.015 299.929 420.241 298.141 463.508L287.043 468.934L286.642 472.032L304.892 471.631L307.652 467.454C312.677 409.127 318.426 348.287 322.511 286.815L325.609 227.979C318.226 227.979 310.827 227.979 303.444 227.979C295.86 239.031 291.806 257.698 291.051 275.193Z" fill="#F1BCBC"/>
<path fill-rule="evenodd" clip-rule="evenodd" d="M331.128 473.019C331.128 470.46 332.515 470.614 334.858 468.626C335.074 468.441 335.768 467.731 336.585 466.853C337.91 465.419 335.367 469.812 335.613 469.011H342.704L350.01 466.021V473.003H331.128V473.019ZM331.128 473.019H350.026V473.651H331.128V473.019Z" fill="#2F2E6B"/>
<path fill-rule="evenodd" clip-rule="evenodd" d="M307.636 473.651H279.043C279.043 473.651 278.534 472.263 280.153 471.631L287.043 468.934C287.891 470.737 302.642 470.737 304.908 469.258L307.636 467.454V473.651Z" fill="#2F2E6B"/>
<path fill-rule="evenodd" clip-rule="evenodd" d="M359.258 273.575C358.257 304.095 385.632 333.937 384.63 364.441C361.016 362.422 318.426 377.281 297.201 365.12L291.22 273.575C291.976 256.08 296.029 237.428 303.598 226.346C318.087 226.346 333.44 226.346 347.929 226.346C355.467 237.413 358.58 256.08 359.258 273.575Z" fill="white" stroke="#2F2E6B" stroke-width="0.5669" stroke-miterlimit="22.9256"/>
<path d="M340.052 359.046C336.954 345.327 312.615 308.595 307.744 312.588C302.873 316.564 318.364 332.95 314.819 336.48C311.274 340.025 306.85 330.283 305.077 328.079" stroke="#2F2E6B" stroke-width="0.5669" stroke-miterlimit="22.9256"/>
<path fill-rule="evenodd" clip-rule="evenodd" d="M303.613 226.345H347.929L346.665 222.8H305.062L303.613 226.345Z" fill="#2F2E6B"/>
<path fill-rule="evenodd" clip-rule="evenodd" d="M353.032 157.536C361.602 165.336 362.727 198.461 365.317 221.12C367.906 243.778 368.677 287.508 368.677 287.508C366.719 288.819 364.777 290.129 362.82 291.439C358.874 278.152 352.091 235.994 350.951 226.561C349.825 217.127 345.448 185.328 345.448 185.328C345.448 185.328 346.573 170.946 353.032 157.536Z" fill="#F1BCBC"/>
<path fill-rule="evenodd" clip-rule="evenodd" d="M361.694 287.416C361.216 289.405 359.536 293.428 359.29 295.031C359.213 295.555 359.213 296.588 359.135 299.116C358.873 301.659 358.257 304.264 358.257 304.264C358.257 304.264 359.32 304.356 359.875 303.524C360.43 302.692 361.309 300.965 361.401 299.855C361.494 298.746 361.525 296.988 361.633 296.603C362.265 298.006 362.727 299.47 362.727 299.47C362.542 301.042 362.08 303.046 361.91 304.187C361.417 304.819 360.492 306.545 360.492 306.545C360.276 306.561 359.182 307.794 359.043 308.349C359.706 308.719 360.369 308.78 360.369 308.78C360.23 308.981 360.184 309.212 360.23 309.412L362.342 309.119L364.13 307.994L365.024 307.917L368.338 305.004L369.848 303.37L370.064 298.16C370.064 298.16 368.816 290.576 368.754 289.451C368.738 289.158 368.692 288.279 368.631 287.077L361.694 287.416Z" fill="#F1BCBC"/>
<path d="M360.369 308.796L361.371 308.457L364.376 305.005L365.055 300.334" stroke="#2F2E6B" stroke-width="0.5669" stroke-miterlimit="22.9256"/>
<path d="M364.438 308.087L366.549 305.482L367.212 301.273" stroke="#2F2E6B" stroke-width="0.5669" stroke-miterlimit="22.9256"/>
<path fill-rule="evenodd" clip-rule="evenodd" d="M316.453 92.3961C320.723 86.4616 335.443 87.2015 341.27 89.8219C353.046 95.109 354.141 101.568 362.881 112.804C371.543 123.918 389.1 122.546 394.141 139.147C397.532 150.338 387.728 164.843 375.674 163.193C361.401 161.236 359.397 149.891 354.572 148.288C349.748 146.685 344.661 150.138 337.94 146.192C325.363 138.824 324.623 128.203 324.623 128.203C322.048 126.569 317.178 134.199 308.962 132.427C300.114 130.515 295.891 120.28 296.584 113.467C298.018 99.24 308.731 90.4385 316.453 92.3961Z" fill="#2F2E6B"/>
<path d="M319.644 91.8256C326.457 88.0028 341.625 87.3092 355.189 98.5153C368.754 109.737 365.285 117.675 384.029 122.639" stroke="#2F2E6B" stroke-width="0.5669" stroke-miterlimit="22.9256"/>
<path fill-rule="evenodd" clip-rule="evenodd" d="M334.272 148.766C334.272 154.284 321.941 176.635 317.455 175.618C314.357 174.924 318.596 152.573 318.596 148.766C318.596 143.125 318.596 139.333 318.596 133.691C323.821 133.691 329.047 125.028 334.272 125.028C334.272 130.67 334.272 143.125 334.272 148.766Z" fill="#F1BCBC"/>
<path fill-rule="evenodd" clip-rule="evenodd" d="M327.197 95.8181C323.39 95.5098 311.922 94.6929 310.334 108.011C308.762 121.329 310.288 125.968 311.135 128.527C312.107 131.471 314.002 135.402 318.041 135.88C326.735 136.897 330.526 133.521 333.085 131.209C335.089 129.406 338.449 124.812 339.636 111.448C340.808 98.0994 330.989 96.296 327.197 95.8181Z" fill="#F1BCBC"/>
<path fill-rule="evenodd" clip-rule="evenodd" d="M328.969 119.91C327.196 120.249 325.932 121.375 326.133 122.423C326.333 123.471 327.936 124.041 329.693 123.702C331.466 123.363 332.73 122.238 332.53 121.205C332.329 120.141 330.726 119.571 328.969 119.91Z" fill="#E986E9"/>
<path fill-rule="evenodd" clip-rule="evenodd" d="M313.216 113.436C313.925 113.513 314.465 114.299 314.403 115.178C314.341 116.056 313.709 116.719 313 116.627C312.291 116.55 311.752 115.763 311.813 114.885C311.875 114.006 312.492 113.359 313.216 113.436Z" fill="#2F2E6B"/>
<path fill-rule="evenodd" clip-rule="evenodd" d="M325.563 114.715C324.838 114.653 324.16 115.301 324.037 116.179C323.914 117.058 324.391 117.829 325.116 117.89C325.84 117.952 326.519 117.305 326.642 116.426C326.765 115.547 326.287 114.777 325.563 114.715Z" fill="#2F2E6B"/>
<path d="M316.654 110.739C319.382 114.146 317.101 120.296 316.546 121.575C315.991 122.87 317.964 122.855 317.964 122.855" stroke="#2F2E6B" stroke-width="0.5669" stroke-miterlimit="22.9256"/>
<path d="M314.141 125.645C314.141 125.645 316.469 127.803 320.939 126.277" stroke="#2F2E6B" stroke-width="0.5669" stroke-miterlimit="22.9256"/>
<path d="M316.314 128.512C316.314 128.512 317.177 129.313 318.842 128.743" stroke="#2F2E6B" stroke-width="0.5669" stroke-miterlimit="22.9256"/>
<path d="M323.929 111.171C323.929 111.171 325.794 110.045 328.584 111.695" stroke="#2F2E6B" stroke-width="0.5669" stroke-miterlimit="22.9256"/>
<path d="M315.914 110.354C315.914 110.354 314.326 108.874 311.259 109.922" stroke="#2F2E6B" stroke-width="0.5669" stroke-miterlimit="22.9256"/>
<path d="M320.491 136.296C324.499 136.434 329.848 135.016 334.472 129.421" stroke="#2F2E6B" stroke-width="0.5669" stroke-miterlimit="22.9256"/>
<path fill-rule="evenodd" clip-rule="evenodd" d="M314.326 101.197C311.536 101.213 310.519 107.363 309.779 112.172C309.285 99.8718 315.759 91.7177 329 93.7986C342.241 95.8795 350.087 103.155 342.78 117.12C328.106 121.39 332.098 101.105 314.326 101.197Z" fill="#2F2E6B"/>
<path fill-rule="evenodd" clip-rule="evenodd" d="M337.123 117.645C337.555 116.797 338.048 116.211 339.173 116.103C340.298 115.98 342.241 116.751 341.917 119.88C341.593 123.009 338.711 125.413 337.108 124.874C335.474 124.334 336.877 118.462 337.123 117.645Z" fill="#F1BCBC"/>
<path fill-rule="evenodd" clip-rule="evenodd" d="M338.279 124.412C337.74 124.35 337.262 124.751 337.216 125.275C337.154 125.814 337.555 126.292 338.079 126.338C338.618 126.4 339.096 125.999 339.143 125.475C339.189 124.951 338.803 124.473 338.279 124.412Z" fill="#E986E9"/>
<path d="M337.986 119.309C338.033 118.924 339.728 117.259 340.9 118.631" stroke="#2F2E6B" stroke-width="0.4252" stroke-miterlimit="22.9256"/>
<path d="M441.662 473.649H0" stroke="#8CB2EF" stroke-width="0.5669" stroke-miterlimit="22.9256"/>
<path d="M217.248 349.935C217.695 358.444 227.545 385.742 237.841 394.251" stroke="#2F2E6B" stroke-width="0.5669" stroke-miterlimit="22.9256"/>
<path d="M219.929 374.551C219.929 374.551 223.952 395.591 228.438 400.955" stroke="#2F2E6B" stroke-width="0.5669" stroke-miterlimit="22.9256"/>
<path d="M113.156 226.39C113.156 226.39 135.953 214.49 143.383 205.087" stroke="#2F2E6B" stroke-width="0.5669" stroke-miterlimit="22.9256"/>
<path d="M130.312 227.623C130.312 227.623 138.08 219.454 140.531 213.735" stroke="#2F2E6B" stroke-width="0.5669" stroke-miterlimit="22.9256"/>
</svg>
